…
``` r
?gpa3

#FILTER OUT ALL ELSE COLUMNS (SELECT STATEMENT)
df %>% select(cumgpa,sat,hsperc,tothrs,female,black,white)
```

    ## # A tibble: 366 x 7
    ##    cumgpa   sat hsperc tothrs female black white
    ##     <dbl> <int>  <dbl>  <int>  <int> <int> <int>
    ##  1   2.04   920  40        43      1     0     0
    ##  2   2.09   780  82.9      43      0     0     1
    ##  3   1.78   810  35.3      14      0     0     1
    ##  4   2     1080   9.75     17      0     0     1
    ##  5   2.41   960  17.2     106      0     0     1
    ##  6   1.16   790  61.4      12      0     1     0
    ##  7   1.87   820  10.5      41      1     1     0
    ##  8   2.09   820  68.0      42      0     0     1
    ##  9   2.17  1040   8.79     17      0     0     1
    ## 10   1.90   730  56.6      50      0     1     0
    ## # ... with 356 more rows
…
